compteur_caracteres + entropie de recherche_temps_perdu :
{'L': 4812, 'o': 282313, 'n': 401723, 'g': 44016, 't': 403557, 'e': 859240, 'm': 178945, 'p': 159792, 's': 443785, ',': 98889, ' ': 1243126, 'j': 34086, 'u': 372914, 'i': 426833, 'c': 163822, 'h': 42670, 'é': 109756, 'd': 204704, 'b': 45377, 'r': 364308, '.': 37350, 'P': 3427, 'a': 459833, 'f': 57264, 'à': 30785, 'y': 14001, 'x': 19501, 'v': 96925, 'q': 87423, '’': 6061, 'l': 310346, ':': 3559, '«': 7220, 'J': 4741, '»': 7206, 'E': 5717, '-': 16363, 'è': 16969, ';': 3649, 'ê': 16029, 'F': 1875, 'ç': 4530, 'I': 3336, 'C': 8877, 'Q': 1224, 'ô': 3311, 'ù': 4671, 'â': 3340, '\n': 11163, 'î': 4062, 'B': 3704, 'û': 4945, '!': 2738, 'D': 2852, 'z': 7992, 'k': 380, 'O': 2793, '–': 3345, 'È': 5, 'A': 6319, 'M': 13453, 'S': 5672, 'U': 645, 'T': 1556, '(': 1926, ')': 1925, 'X': 214, 'V': 3867, '0': 238, '2': 246, 'À': 557, 'G': 3321, 'R': 1503, 'H': 688, '3': 245, 'w': 1816, '?': 2452, 'N': 1672, '4': 242, 'Ê': 17, 'ï': 484, '1': 346, '…': 404, 'É': 442, '“': 503, '”': 506, '—': 876, '5': 122, '6': 123, '7': 143, '8': 140, '9': 131, '|': 32, 'Â': 26, 'ë': 72, 'Ô': 14, 'Î': 7, 'Ç': 96, 'Y': 32, 'Z': 51, 'W': 97, "'": 87785, 'ü': 7, '%': 1, 'K': 53, '‘': 9, '*': 129, '°': 13, '½': 2, 'ä': 2, 'ö': 1, 'γ': 2, 'ν': 4, 'ῶ': 2, 'θ': 2, 'ι': 2, 'σ': 2, 'ε': 2, 'α': 2, 'υ': 2, 'τ': 2, 'ó': 2, 'ñ': 1, 'æ': 1}
4.3857556620141604

Entropie lorem:
4.1920031010017915

codage_arbre recherche_temps_perdu:
{'h': '00000000', 'L': '00000010000', 'û': '00000010011', 'Q': '0000001010000', '8': '0000001010010000', '7': '0000001010010011', 'ë': '00000010100101000', 'σ': '0000001010010101000000', 'θ': '0000001010010101000011', '%': '00000010100101010001000', 'ö': '00000010100101010001011', 'ñ': '00000010100101010001100', 'æ': '00000010100101010001111', 'ῶ': '0000001010010101001000', 'ι': '0000001010010101001011', 'ε': '0000001010010101001100', 'α': '0000001010010101001111', 'ν': '000000101001010101000', '½': '0000001010010101010100', 'ä': '0000001010010101010111', '‘': '00000010100101010111', 'Ê': '0000001010010101100', 'È': '000000101001010111000', 'Î': '000000101001010111011', '°': '00000010100101011111', 'Ç': '00000010100101100', 'W': '00000010100101111', 'U': '00000010100111', '!': '000000101011', 'O': '000000101100', 'D': '000000101111', '\n': '0000001100', 'S': '00000011100', 'E': '00000011111', 'q': '0000011', "'": '0000100', 'g': '00001100', 'b': '00001111', 'r': '00011', 'u': '00100', 'm': '001100', 'v': '0011100', ',': '0011111', 'n': '01000', 't': '01011', 'd': '011000', '’': '01101000000', 'H': '01101000010000', '1': '011010000100100', 'k': '011010000100111', 'R': '0110100001011', 'T': '0110100001100', 'N': '0110100001111', 'A': '01101000100', 'ô': '011010001100', 'G': '011010001111', 'I': '011010010000', 'â': '011010010011', '–': '011010010100', 'P': '011010010111', 'M': '0110100111', 'f': '01101011', 'é': '0110111', 'i': '01111', 'e': '1000', 's': '10100', 'a': '10111', 'y': '1100000000', '…': '110000001000000', 'X': '1100000010000100', 'Z': '110000001000011000', 'K': '110000001000011011', 'Â': '1100000010000111000', 'Ô': '11000000100001110100', 'ü': '110000001000011101100', 'γ': '11000000100001110111000', 'υ': '11000000100001110111011', 'τ': '11000000100001110111100', 'ó': '11000000100001110111111', 'Y': '1100000010000111100', '|': '1100000010000111111', '—': '11000000100011', 'w': '1100000010011', ':': '110000001011', '»': '11000000111', '«': '11000001000', ';': '110000010100', 'B': '110000010111', 'F': '1100000110000', 'É': '110000011001000', '0': '1100000110010100', '4': '1100000110010111', 'ï': '110000011001100', '5': '11000001100111000', '6': '11000001100111011', '3': '1100000110011111', ')': '1100000110100', '(': '1100000110111', 'V': '110000011100', 'î': '110000011111', 'à': '110000100', 'ê': '1100001100', '-': '1100001111', 'z': '11000100000', 'C': '11000100011', 'è': '1100010011', 'j': '110001011', '.': '110001100', '“': '110001110000000', '”': '110001110000011', '2': '1100011100001000', '*': '11000111000010100', '9': '11000111000010111', 'À': '110001110000111', '?': '1100011100011', 'ç': '110001110011', 'ù': '110001110100', 'J': '110001110111', 'x': '1100011111', 'o': '110011', 'l': '110100', 'p': '1101100', 'c': '1101111', ' ': '1111'}

encode_carac for the file lorem.txt is done in file test_encode_carac_sur_recherche_lorem.txt

codage_arbre lorem:
{'e': '0000', 'l': '00100', 'b': '0011000', 'q': '0011011', 'g': '0011100', 'v': '0011111', 'r': '01000', 'n': '01011', 'd': '011000', 'P': '0110100000', 'I': '01101000100', 'Q': '01101000111', 'V': '0110100100', 'L': '0110100111', 'R': '011010100000', 'U': '011010100011', 'G': '0110101001000', ',': '0110101001011', 'O': '011010100111', 'F': '01101010100', 'D': '01101010111', 'A': '0110101100', 'E': '0110101111', 'p': '0110111', 'c': '011100', 'o': '011111', 't': '10000', 's': '10011', 'a': '10100', 'u': '10111', ' ': '1100', 'f': '111000000', 'h': '111000011', 'N': '11100010000', 'j': '1110001001000', 'H': '11100010010100', 'B': '11100010010111', 'T': '111000100111', 'S': '1110001011', '\n': '1110001100', 'M': '11100011100', 'C': '11100011111', '.': '1110011', 'm': '111011', 'i': '11111'}

decode_carac for the file test_encode_carac_sur_recherche_lorem.txt is done in file test_decode_carac_sur_recherche_lorem.txt

octet2s de b'\xF1\x10'':
1111000100010000

recherche_prefixe sur les chaınes r = baa et s = aaaaaaaaaaa :
(3, 3)